EDA
…
##  [1] "EVENTID"   "FIRE_NA"   "FIRE_DI"   "FIRE_STAT" "FIRE_NU"   "FIRE_STAR"
##  [7] "CAUSE"     "lon"       "lat"       "ID"        "COUNT"     "STATE"    
## [13] "FOR_SOU"   "FOR_COD"   "FOR_TYP"   "FOR_CAT"   "COVER"     "HEIGHT"   
## [19] "FOREST"    "ns_rnfl"   "ns_temp"   "ns_solr"   "rainfll"   "mn_tmpr"  
## [25] "mx_tmpr"   "slr_xps"   "last_rn"   "rnfll_7"   "rnfl_14"   "rnfl_21"  
## [31] "rnfl_28"   "rnfl_60"   "rnfl_90"   "rnf_180"   "rnf_360"   "mn_tm_7"  
## [37] "mx_tm_7"   "mn_t_14"   "mx_t_14"   "mn_t_21"   "mx_t_21"   "mn_t_28"  
## [43] "mx_t_28"   "mn_t_60"   "mx_t_60"   "mn_t_90"   "mx_t_90"   "mn__180"  
## [49] "mx__180"   "mn__360"   "mx__360"   "slr_x_7"   "slr__14"   "slr__21"  
## [55] "slr__28"   "slr__60"   "slr__90"   "sl__180"   "sl__360"   "dist_cfa" 
## [61] "dist_camp" "dist_road" "geometry"  "new_cause"

fire_o %>% as_tibble()

## # A tibble: 11,916 x 64
##    EVENTID FIRE_NA FIRE_DI FIRE_STAT FIRE_NU FIRE_STAR  CAUSE   lon   lat    ID
##      <dbl> <fct>   <fct>   <fct>       <dbl> <date>     <fct> <dbl> <dbl> <int>
##  1  562123 STRATH~ MURRAY~ SAFE           39 2007-12-01 LIGH~  144. -36.8     1
##  2  562128 BARMAH~ GOULBU~ SAFE           20 2007-12-01 LIGH~  145. -35.9     2
##  3  562140 NEERIM~ BAW BAW SAFE            4 2007-12-01 BURN~  146. -38.0     3
##  4  562125 GLENLY~ MURRAY~ SAFE           40 2007-12-01 LIGH~  144. -37.3     4
##  5    7044 MIDDLE~ MIDLAN~ SAFE           22 2000-02-01 BURN~  144. -37.3     7
##  6   64973 WHITES~ MIDLAN~ SAFE           27 2001-02-01 OTHER  144. -37.6    10
##  7   64976 FRYERS~ MURRAY~ SAFE           62 2001-02-01 DELI~  144. -37.1    11
##  8  267161 VINCEN~ UPPER ~ SAFE            5 2002-02-01 LIGH~  148. -36.5    12
##  9  267170 WOMBAT~ MIDLAN~ SAFE           11 2002-02-01 LIGH~  144. -37.4    13
## 10  352077 JOES C~ SNOWY   SAFE           17 2005-02-01 LIGH~  148. -37.5    16
## # ... with 11,906 more rows, and 54 more variables: COUNT <int>, STATE <fct>,
## #   FOR_SOU <fct>, FOR_COD <dbl>, FOR_TYP <fct>, FOR_CAT <fct>, COVER <dbl>,
## #   HEIGHT <dbl>, FOREST <int>, ns_rnfl <dbl>, ns_temp <dbl>, ns_solr <dbl>,
## #   rainfll <dbl>, mn_tmpr <dbl>, mx_tmpr <dbl>, slr_xps <dbl>, last_rn <dbl>,
## #   rnfll_7 <dbl>, rnfl_14 <dbl>, rnfl_21 <dbl>, rnfl_28 <dbl>, rnfl_60 <dbl>,
## #   rnfl_90 <dbl>, rnf_180 <dbl>, rnf_360 <dbl>, mn_tm_7 <dbl>, mx_tm_7 <dbl>,
## #   mn_t_14 <dbl>, mx_t_14 <dbl>, mn_t_21 <dbl>, mx_t_21 <dbl>, mn_t_28 <dbl>,
## #   mx_t_28 <dbl>, mn_t_60 <dbl>, mx_t_60 <dbl>, mn_t_90 <dbl>, mx_t_90 <dbl>,
## #   mn__180 <dbl>, mx__180 <dbl>, mn__360 <dbl>, mx__360 <dbl>, slr_x_7 <dbl>,
…
